spi_vivado/spi_vivado.sim/sim_1/behav/xsim/dump.vcd
$date
   Tue Aug 29 11:28:32 2023
$end
$version
  2023.1.1
$end
$timescale
  1ps
$end
$scope module SPI_Master_TB $end
$var reg 1 ! r_Rst_L $end
$var reg 1 " w_SPI_Clk $end
$var reg 1 # r_Clk $end
$var reg 1 $ w_SPI_MOSI $end
$var reg 8 % r_Master_TX_Byte [7:0] $end
$var reg 1 & r_Master_TX_DV $end
$var reg 1 ' w_Master_TX_Ready $end
$var reg 1 ( r_Master_RX_DV $end
$var reg 8 ) r_Master_RX_Byte [7:0] $end
$scope module SPI_Master_UUT $end
$var wire 1 * i_Rst_L $end
$var wire 1 + i_Clk $end
$var wire 8 , i_TX_Byte [7:0] $end
$var wire 1 - i_TX_DV $end
$var reg 1 ' o_TX_Ready $end
$var reg 1 ( o_RX_DV $end
$var reg 8 ) o_RX_Byte [7:0] $end
$var reg 1 " o_SPI_Clk $end
$var wire 1 . i_SPI_MISO $end
$var reg 1 $ o_SPI_MOSI $end
$var wire 1 / w_CPOL $end
$var wire 1 0 w_CPHA $end
$var reg 3 1 r_SPI_Clk_Count [2:0] $end
$var reg 1 2 r_SPI_Clk $end
$var reg 5 3 r_SPI_Clk_Edges [4:0] $end
$var reg 1 4 r_Leading_Edge $end
$var reg 1 5 r_Trailing_Edge $end
$var reg 1 6 r_TX_DV $end
$var reg 8 7 r_TX_Byte [7:0] $end
$var reg 3 8 r_RX_Bit_Count [2:0] $end
$var reg 3 9 r_TX_Bit_Count [2:0] $end
$upscope $end
$scope task SendSingleByte $end
$var reg 8 : data [7:0] $end
$upscope $end
$upscope $end
$enddefinitions $end
#0
$dumpvars
0!
1"
0#
0$
b0 %
0&
0'
0(
b0 )
0*
0+
b0 ,
0-
0.
1/
10
b0 1
12
b0 3
04
05
06
b0 7
b111 8
b111 9
bx :
$end
#2000
1#
1+
#4000
0#
0+
#6000
1#
1+
#8000
0#
0+
#10000
1#
1+
#12000
0#
0+
#14000
1#
1+
#16000
0#
0+
#18000
1#
1+
#20000
0#
0+
#22000
1#
1+
#24000
0#
0+
#26000
1#
1+
#28000
0#
0+
#30000
1#
1+
#32000
0#
0+
#34000
1#
1+
#36000
0#
0+
#38000
1#
1+
#40000
0#
0+
#42000
1#
1+
#44000
0#
0+
#46000
1#
1+
#48000
0#
0+
#50000
1#
1+
#52000
0#
0+
#54000
1#
1+
#56000
0#
0+
#58000
1#
1+
#60000
0#
0+
#62000
1#
1+
#64000
0#
0+
#66000
1#
1+
#68000
0#
0+
#70000
1#
1+
#72000
0#
0+
#74000
1#
1+
#76000
0#
0+
#78000
1!
1#
1'
1*
1+
b11000001 :
#80000
0#
0+
#82000
1#
b11000001 %
1&
1+
b11000001 ,
1-
#84000
0#
0+
#86000
1#
0&
0'
1+
0-
b10000 3
16
b11000001 7
#88000
0#
0+
#90000
1#
1+
b1 1
06
#92000
0#
0+
#94000
1#
1+
b10 1
#96000
0#
0+
#98000
1#
1+
b11 1
#100000
0#
0+
#102000
1#
1+
b100 1
02
b1111 3
14
#104000
0#
0+
#106000
0"
1#
1$
1+
1.
b101 1
04
b110 9
#108000
0#
0+
#110000
1#
1+
b110 1
#112000
0#
0+
#114000
1#
1+
b111 1
#116000
0#
0+
#118000
1#
1+
b0 1
12
b1110 3
15
#120000
0#
0+
#122000
1"
1#
b10000000 )
1+
b1 1
05
b110 8
#124000
0#
0+
#126000
1#
1+
b10 1
#128000
0#
0+
#130000
1#
1+
b11 1
#132000
0#
0+
#134000
1#
1+
b100 1
02
b1101 3
14
#136000
0#
0+
#138000
0"
1#
1+
b101 1
04
b101 9
#140000
0#
0+
#142000
1#
1+
b110 1
#144000
0#
0+
#146000
1#
1+
b111 1
#148000
0#
0+
#150000
1#
1+
b0 1
12
b1100 3
15
#152000
0#
0+
#154000
1"
1#
b11000000 )
1+
b1 1
05
b101 8
#156000
0#
0+
#158000
1#
1+
b10 1
#160000
0#
0+
#162000
1#
1+
b11 1
#164000
0#
0+
#166000
1#
1+
b100 1
02
b1011 3
14
#168000
0#
0+
#170000
0"
1#
0$
1+
0.
b101 1
04
b100 9
#172000
0#
0+
#174000
1#
1+
b110 1
#176000
0#
0+
#178000
1#
1+
b111 1
#180000
0#
0+
#182000
1#
1+
b0 1
12
b1010 3
15
#184000
0#
0+
#186000
1"
1#
1+
b1 1
05
b100 8
#188000
0#
0+
#190000
1#
1+
b10 1
#192000
0#
0+
#194000
1#
1+
b11 1
#196000
0#
0+
#198000
1#
1+
b100 1
02
b1001 3
14
#200000
0#
0+
#202000
0"
1#
1+
b101 1
04
b11 9
#204000
0#
0+
#206000
1#
1+
b110 1
#208000
0#
0+
#210000
1#
1+
b111 1
#212000
0#
0+
#214000
1#
1+
b0 1
12
b1000 3
15
#216000
0#
0+
#218000
1"
1#
1+
b1 1
05
b11 8
#220000
0#
0+
#222000
1#
1+
b10 1
#224000
0#
0+
#226000
1#
1+
b11 1
#228000
0#
0+
#230000
1#
1+
b100 1
02
b111 3
14
#232000
0#
0+
#234000
0"
1#
1+
b101 1
04
b10 9
#236000
0#
0+
#238000
1#
1+
b110 1
#240000
0#
0+
#242000
1#
1+
b111 1
#244000
0#
0+
#246000
1#
1+
b0 1
12
b110 3
15
#248000
0#
0+
#250000
1"
1#
1+
b1 1
05
b10 8
#252000
0#
0+
#254000
1#
1+
b10 1
#256000
0#
0+
#258000
1#
1+
b11 1
#260000
0#
0+
#262000
1#
1+
b100 1
02
b101 3
14
#264000
0#
0+
#266000
0"
1#
1+
b101 1
04
b1 9
#268000
0#
0+
#270000
1#
1+
b110 1
#272000
0#
0+
#274000
1#
1+
b111 1
#276000
0#
0+
#278000
1#
1+
b0 1
12
b100 3
15
#280000
0#
0+
#282000
1"
1#
1+
b1 1
05
b1 8
#284000
0#
0+
#286000
1#
1+
b10 1
#288000
0#
0+
#290000
1#
1+
b11 1
#292000
0#
0+
#294000
1#
1+
b100 1
02
b11 3
14
#296000
0#
0+
#298000
0"
1#
1+
b101 1
04
b0 9
#300000
0#
0+
#302000
1#
1+
b110 1
#304000
0#
0+
#306000
1#
1+
b111 1
#308000
0#
0+
#310000
1#
1+
b0 1
12
b10 3
15
#312000
0#
0+
#314000
1"
1#
1+
b1 1
05
b0 8
#316000
0#
0+
#318000
1#
1+
b10 1
#320000
0#
0+
#322000
1#
1+
b11 1
#324000
0#
0+
#326000
1#
1+
b100 1
02
b1 3
14
#328000
0#
0+
#330000
0"
1#
1$
1+
1.
b101 1
04
b111 9
#332000
0#
0+
#334000
1#
1+
b110 1
#336000
0#
0+
#338000
1#
1+
b111 1
#340000
0#
0+
#342000
1#
1+
b0 1
12
b0 3
15
#344000
0#
0+
#346000
1"
1#
1'
1(
b11000001 )
1+
05
b111 8
b10111110 :
#348000
0#
0+
#350000
1#
b10111110 %
1&
0(
1+
b10111110 ,
1-
#352000
0#
0+
#354000
1#
0&
0'
1+
0-
b10000 3
16
b10111110 7
#356000
0#
0+
#358000
1#
1+
b1 1
06
#360000
0#
0+
#362000
1#
1+
b10 1
#364000
0#
0+
#366000
1#
1+
b11 1
#368000
0#
0+
#370000
1#
1+
b100 1
02
b1111 3
14
#372000
0#
0+
#374000
0"
1#
1+
b101 1
04
b110 9
#376000
0#
0+
#378000
1#
1+
b110 1
#380000
0#
0+
#382000
1#
1+
b111 1
#384000
0#
0+
#386000
1#
1+
b0 1
12
b1110 3
15
#388000
0#
0+
#390000
1"
1#
1+
b1 1
05
b110 8
#392000
0#
0+
#394000
1#
1+
b10 1
#396000
0#
0+
#398000
1#
1+
b11 1
#400000
0#
0+
#402000
1#
1+
b100 1
02
b1101 3
14
#404000
0#
0+
#406000
0"
1#
0$
1+
0.
b101 1
04
b101 9
#408000
0#
0+
#410000
1#
1+
b110 1
#412000
0#
0+
#414000
1#
1+
b111 1
#416000
0#
0+
#418000
1#
1+
b0 1
12
b1100 3
15
#420000
0#
0+
#422000
1"
1#
b10000001 )
1+
b1 1
05
b101 8
#424000
0#
0+
#426000
1#
1+
b10 1
#428000
0#
0+
#430000
1#
1+
b11 1
#432000
0#
0+
#434000
1#
1+
b100 1
02
b1011 3
14
#436000
0#
0+
#438000
0"
1#
1$
1+
1.
b101 1
04
b100 9
#440000
0#
0+
#442000
1#
1+
b110 1
#444000
0#
0+
#446000
1#
1+
b111 1
#448000
0#
0+
#450000
1#
1+
b0 1
12
b1010 3
15
#452000
0#
0+
#454000
1"
1#
b10100001 )
1+
b1 1
05
b100 8
#456000
0#
0+
#458000
1#
1+
b10 1
#460000
0#
0+
#462000
1#
1+
b11 1
#464000
0#
0+
#466000
1#
1+
b100 1
02
b1001 3
14
#468000
0#
0+
#470000
0"
1#
1+
b101 1
04
b11 9
#472000
0#
0+
#474000
1#
1+
b110 1
#476000
0#
0+
#478000
1#
1+
b111 1
#480000
0#
0+
#482000
1#
1+
b0 1
12
b1000 3
15
#484000
0#
0+
#486000
1"
1#
b10110001 )
1+
b1 1
05
b11 8
#488000
0#
0+
#490000
1#
1+
b10 1
#492000
0#
0+
#494000
1#
1+
b11 1
#496000
0#
0+
#498000
1#
1+
b100 1
02
b111 3
14
#500000
0#
0+
#502000
0"
1#
1+
b101 1
04
b10 9
#504000
0#
0+
#506000
1#
1+
b110 1
#508000
0#
0+
#510000
1#
1+
b111 1
#512000
0#
0+
#514000
1#
1+
b0 1
12
b110 3
15
#516000
0#
0+
#518000
1"
1#
b10111001 )
1+
b1 1
05
b10 8
#520000
0#
0+
#522000
1#
1+
b10 1
#524000
0#
0+
#526000
1#
1+
b11 1
#528000
0#
0+
#530000
1#
1+
b100 1
02
b101 3
14
#532000
0#
0+
#534000
0"
1#
1+
b101 1
04
b1 9
#536000
0#
0+
#538000
1#
1+
b110 1
#540000
0#
0+
#542000
1#
1+
b111 1
#544000
0#
0+
#546000
1#
1+
b0 1
12
b100 3
15
#548000
0#
0+
#550000
1"
1#
b10111101 )
1+
b1 1
05
b1 8
#552000
0#
0+
#554000
1#
1+
b10 1
#556000
0#
0+
#558000
1#
1+
b11 1
#560000
0#
0+
#562000
1#
1+
b100 1
02
b11 3
14
#564000
0#
0+
#566000
0"
1#
1+
b101 1
04
b0 9
#568000
0#
0+
#570000
1#
1+
b110 1
#572000
0#
0+
#574000
1#
1+
b111 1
#576000
0#
0+
#578000
1#
1+
b0 1
12
b10 3
15
#580000
0#
0+
#582000
1"
1#
b10111111 )
1+
b1 1
05
b0 8
#584000
0#
0+
#586000
1#
1+
b10 1
#588000
0#
0+
#590000
1#
1+
b11 1
#592000
0#
0+
#594000
1#
1+
b100 1
02
b1 3
14
#596000
0#
0+
#598000
0"
1#
0$
1+
0.
b101 1
04
b111 9
#600000
0#
0+
#602000
1#
1+
b110 1
#604000
0#
0+
#606000
1#
1+
b111 1
#608000
0#
0+
#610000
1#
1+
b0 1
12
b0 3
15
#612000
0#
0+
#614000
1"
1#
1'
1(
b10111110 )
1+
05
b111 8
b11101111 :
#616000
0#
0+
#618000
1#
b11101111 %
1&
0(
1+
b11101111 ,
1-
#620000
0#
0+
#622000
1#
0&
0'
1+
0-
b10000 3
16
b11101111 7
#624000
0#
0+
#626000
1#
1+
b1 1
06
#628000
0#
0+
#630000
1#
1+
b10 1
#632000
0#
0+
#634000
1#
1+
b11 1
#636000
0#
0+
#638000
1#
1+
b100 1
02
b1111 3
14
#640000
0#
0+
#642000
0"
1#
1$
1+
1.
b101 1
04
b110 9
#644000
0#
0+
#646000
1#
1+
b110 1
#648000
0#
0+
#650000
1#
1+
b111 1
#652000
0#
0+
#654000
1#
1+
b0 1
12
b1110 3
15
#656000
0#
0+
#658000
1"
1#
1+
b1 1
05
b110 8
#660000
0#
0+
#662000
1#
1+
b10 1
#664000
0#
0+
#666000
1#
1+
b11 1
#668000
0#
0+
#670000
1#
1+
b100 1
02
b1101 3
14
#672000
0#
0+
#674000
0"
1#
1+
b101 1
04
b101 9
#676000
0#
0+
#678000
1#
1+
b110 1
#680000
0#
0+
#682000
1#
1+
b111 1
#684000
0#
0+
#686000
1#
1+
b0 1
12
b1100 3
15
#688000
0#
0+
#690000
1"
1#
b11111110 )
1+
b1 1
05
b101 8
#692000
0#
0+
#694000
1#
1+
b10 1
#696000
0#
0+
#698000
1#
1+
b11 1
#700000
0#
0+
#702000
1#
1+
b100 1
02
b1011 3
14
#704000
0#
0+
#706000
0"
1#
1+
b101 1
04
b100 9
#708000
0#
0+
#710000
1#
1+
b110 1
#712000
0#
0+
#714000
1#
1+
b111 1
#716000
0#
0+
#718000
1#
1+
b0 1
12
b1010 3
15
#720000
0#
0+
#722000
1"
1#
1+
b1 1
05
b100 8
#724000
0#
0+
#726000
1#
1+
b10 1
#728000
0#
0+
#730000
1#
1+
b11 1
#732000
0#
0+
#734000
1#
1+
b100 1
02
b1001 3
14
#736000
0#
0+
#738000
0"
1#
0$
1+
0.
b101 1
04
b11 9
#740000
0#
0+
#742000
1#
1+
b110 1
#744000
0#
0+
#746000
1#
1+
b111 1
#748000
0#
0+
#750000
1#
1+
b0 1
12
b1000 3
15
#752000
0#
0+
#754000
1"
1#
b11101110 )
1+
b1 1
05
b11 8
#756000
0#
0+
#758000
1#
1+
b10 1
#760000
0#
0+
#762000
1#
1+
b11 1
#764000
0#
0+
#766000
1#
1+
b100 1
02
b111 3
14
#768000
0#
0+
#770000
0"
1#
1$
1+
1.
b101 1
04
b10 9
#772000
0#
0+
#774000
1#
1+
b110 1
#776000
0#
0+
#778000
1#
1+
b111 1
#780000
0#
0+
#782000
1#
1+
b0 1
12
b110 3
15
#784000
0#
0+
#786000
1"
1#
1+
b1 1
05
b10 8
#788000
0#
0+
#790000
1#
1+
b10 1
#792000
0#
0+
#794000
1#
1+
b11 1
#796000
0#
0+
#798000
1#
1+
b100 1
02
b101 3
14
#800000
0#
0+
#802000
0"
1#
1+
b101 1
04
b1 9
#804000
0#
0+
#806000
1#
1+
b110 1
#808000
0#
0+
#810000
1#
1+
b111 1
#812000
0#
0+
#814000
1#
1+
b0 1
12
b100 3
15
#816000
0#
0+
#818000
1"
1#
1+
b1 1
05
b1 8
#820000
0#
0+
#822000
1#
1+
b10 1
#824000
0#
0+
#826000
1#
1+
b11 1
#828000
0#
0+
#830000
1#
1+
b100 1
02
b11 3
14
#832000
0#
0+
#834000
0"
1#
1+
b101 1
04
b0 9
#836000
0#
0+
#838000
1#
1+
b110 1
#840000
0#
0+
#842000
1#
1+
b111 1
#844000
0#
0+
#846000
1#
1+
b0 1
12
b10 3
15
#848000
0#
0+
#850000
1"
1#
1+
b1 1
05
b0 8
#852000
0#
0+
#854000
1#
1+
b10 1
#856000
0#
0+
#858000
1#
1+
b11 1
#860000
0#
0+
#862000
1#
1+
b100 1
02
b1 3
14
#864000
0#
0+
#866000
0"
1#
1+
b101 1
04
b111 9
#868000
0#
0+
#870000
1#
1+
b110 1
#872000
0#
0+
#874000
1#
1+
b111 1
#876000
0#
0+
#878000
1#
1+
b0 1
12
b0 3
15
#880000
0#
0+
#882000
1"
1#
1'
1(
b11101111 )
1+
05
b111 8
#884000
0#
0+
#886000
1#
0(
1+
